<?xml version="1.0" encoding="UTF-8" standalone="no"?>
<svg
   xmlns:dc="http://purl.org/dc/elements/1.1/"
   xmlns:cc="http://creativecommons.org/ns#"
   xmlns:rdf="http://www.w3.org/1999/02/22-rdf-syntax-ns#"
   xmlns:svg="http://www.w3.org/2000/svg"
   xmlns="http://www.w3.org/2000/svg"
   xmlns:xlink="http://www.w3.org/1999/xlink"
   xmlns:sodipodi="http://sodipodi.sourceforge.net/DTD/sodipodi-0.dtd"
   xmlns:inkscape="http://www.inkscape.org/namespaces/inkscape"
   width="81.991211"
   height="52.240807"
   viewBox="0 0 21.693507 13.822047"
   version="1.1"
   id="svg8"
   inkscape:version="1.0.2 (e86c870879, 2021-01-15)"
   sodipodi:docname="helm.svg">
  <defs
     id="defs2">
    <linearGradient
       inkscape:collect="always"
       id="linearGradient875-6-7">
      <stop
         style="stop-color:#9f0000;stop-opacity:1"
         offset="0"
         id="stop879" />
      <stop
         style="stop-color:#ffb6b6;stop-opacity:1"
         offset="1"
         id="stop881" />
    </linearGradient>
    <linearGradient
       inkscape:collect="always"
       xlink:href="#linearGradient875-6-7"
       id="linearGradient877"
       x1="86.292969"
       y1="46.878365"
       x2="83.773033"
       y2="39.513405"
       gradientUnits="userSpaceOnUse" />
    <linearGradient
       inkscape:collect="always"
       xlink:href="#linearGradient875-6-7"
       id="linearGradient895"
       x1="79.626198"
       y1="49.393177"
       x2="79.974228"
       y2="44.863598"
       gradientUnits="userSpaceOnUse" />
  </defs>
  <sodipodi:namedview
     id="base"
     pagecolor="#ffffff"
     bordercolor="#666666"
     borderopacity="1.0"
     inkscape:pageopacity="0.0"
     inkscape:pageshadow="2"
     inkscape:zoom="3.959798"
     inkscape:cx="34.68023"
     inkscape:cy="43.894821"
     inkscape:document-units="mm"
     inkscape:current-layer="layer1"
     inkscape:document-rotation="0"
     showgrid="false"
     fit-margin-top="0"
     fit-margin-left="0"
     fit-margin-right="0"
     fit-margin-bottom="0"
     units="px"
     inkscape:window-width="1680"
     inkscape:window-height="986"
     inkscape:window-x="0"
     inkscape:window-y="27"
     inkscape:window-maximized="1" />
  <metadata
     id="metadata5">
    <rdf:RDF>
      <cc:Work
         rdf:about="">
        <dc:format>image/svg+xml</dc:format>
        <dc:type
           rdf:resource="http://purl.org/dc/dcmitype/StillImage" />
        <dc:title></dc:title>
      </cc:Work>
    </rdf:RDF>
  </metadata>
  <g
     inkscape:label="Ebene 1"
     inkscape:groupmode="layer"
     id="layer1"
     transform="translate(-75.059268,-37.963694)">
    <path
       style="fill:url(#linearGradient877);fill-opacity:1;stroke:#000000;stroke-width:0.264583px;stroke-linecap:butt;stroke-linejoin:miter;stroke-opacity:1"
       d="m 79.091834,47.047033 c 2.82344,-7.033382 4.6812,-7.533628 4.6812,-7.533628 1.412994,-1.62291 6.47243,-2.207388 9.870576,0.181724 2.43063,1.708888 3.106857,4.004246 2.957076,8.20999 -0.247552,6.951062 -14.22319,-4.895096 -17.508852,-0.858086 z"
       id="path841"
       sodipodi:nodetypes="ccssc" />
    <path
       style="fill:url(#linearGradient895);fill-opacity:1;stroke:#000000;stroke-width:0.264583px;stroke-linecap:butt;stroke-linejoin:miter;stroke-opacity:1"
       d="m 79.091834,47.047033 -3.811717,2.025737 c 0,0 5.241565,5.187446 17.242792,0.854006 C 79.45905,44.010038 79.091834,47.047033 79.091834,47.047033 Z"
       id="path843"
       sodipodi:nodetypes="cccc" />
  </g>
</svg>
