<?xml version="1.0" encoding="UTF-8" standalone="no"?>
<svg
   xmlns:dc="http://purl.org/dc/elements/1.1/"
   xmlns:cc="http://creativecommons.org/ns#"
   xmlns:rdf="http://www.w3.org/1999/02/22-rdf-syntax-ns#"
   xmlns:svg="http://www.w3.org/2000/svg"
   xmlns="http://www.w3.org/2000/svg"
   xmlns:sodipodi="http://sodipodi.sourceforge.net/DTD/sodipodi-0.dtd"
   xmlns:inkscape="http://www.inkscape.org/namespaces/inkscape"
   width="588.95996"
   height="162.05824"
   viewBox="0 0 155.82899 42.877911"
   version="1.1"
   id="svg8"
   inkscape:version="1.0.2 (e86c870879, 2021-01-15)"
   sodipodi:docname="hindernis1.svg">
  <defs
     id="defs2">
    <filter
       inkscape:collect="always"
       style="color-interpolation-filters:sRGB"
       id="filter2763"
       x="-2.5463928e-06"
       width="1.0000051"
       y="-4.1746167e-05"
       height="1.0000834">
      <feGaussianBlur
         inkscape:collect="always"
         stdDeviation="0.00016533324"
         id="feGaussianBlur2765" />
    </filter>
    <filter
       inkscape:collect="always"
       style="color-interpolation-filters:sRGB"
       id="filter2929"
       x="-1.7984081e-05"
       width="1.000036"
       y="-7.7172135e-06"
       height="1.0000154">
      <feGaussianBlur
         inkscape:collect="always"
         stdDeviation="3.6191845e-05"
         id="feGaussianBlur2931" />
    </filter>
    <filter
       inkscape:collect="always"
       style="color-interpolation-filters:sRGB"
       id="filter2929-3"
       x="-1.7984081e-05"
       width="1.000036"
       y="-7.7172135e-06"
       height="1.0000154">
      <feGaussianBlur
         inkscape:collect="always"
         stdDeviation="3.6191845e-05"
         id="feGaussianBlur2931-6" />
    </filter>
  </defs>
  <sodipodi:namedview
     id="base"
     pagecolor="#ffffff"
     bordercolor="#666666"
     borderopacity="1.0"
     inkscape:pageopacity="0.0"
     inkscape:pageshadow="2"
     inkscape:zoom="0.98994949"
     inkscape:cx="26.079945"
     inkscape:cy="113.06306"
     inkscape:document-units="mm"
     inkscape:current-layer="layer2"
     inkscape:document-rotation="0"
     showgrid="false"
     showguides="true"
     inkscape:guide-bbox="true"
     inkscape:window-width="1680"
     inkscape:window-height="986"
     inkscape:window-x="0"
     inkscape:window-y="27"
     inkscape:window-maximized="1"
     fit-margin-top="0"
     fit-margin-left="0"
     fit-margin-right="0"
     fit-margin-bottom="0"
     units="px" />
  <metadata
     id="metadata5">
    <rdf:RDF>
      <cc:Work
         rdf:about="">
        <dc:format>image/svg+xml</dc:format>
        <dc:type
           rdf:resource="http://purl.org/dc/dcmitype/StillImage" />
        <dc:title></dc:title>
      </cc:Work>
    </rdf:RDF>
  </metadata>
  <g
     inkscape:groupmode="layer"
     id="layer3"
     inkscape:label="Ebene 3"
     transform="translate(-17.755132,-8.6605451)">
    <path
       style="fill:#792100;fill-opacity:1;stroke:#000000;stroke-width:0.264583px;stroke-linecap:butt;stroke-linejoin:miter;stroke-opacity:1;filter:url(#filter2929)"
       d="m 27.134285,14.341657 -1.119437,9.196201 3.541237,0.200452 1.288614,-9.395382 -1.03414,-1.674584 -1.719615,-0.185447 z"
       id="path2919" />
    <path
       style="fill:#792100;fill-opacity:1;stroke:#000000;stroke-width:0.264583px;stroke-linecap:butt;stroke-linejoin:miter;stroke-opacity:1;filter:url(#filter2929-3)"
       d="m 148.49517,10.343355 -1.11944,9.196201 3.54124,0.200452 1.28861,-9.395382 -1.03414,-1.674584 -1.71961,-0.185447 z"
       id="path2919-0"
       transform="matrix(-1,0,0,1,310.26472,0.176037)" />
  </g>
  <g
     inkscape:label="Ebene 1"
     inkscape:groupmode="layer"
     id="layer1"
     sodipodi:insensitive="true"
     style="display:inline"
     transform="translate(-17.755132,-8.6605451)">
    <path
       style="opacity:1;fill:#ffb9ff;fill-opacity:1;stroke:#000000;stroke-width:0.264583px;stroke-linecap:butt;stroke-linejoin:miter;stroke-opacity:1;filter:url(#filter2763)"
       d="m 19.388182,18.435178 c 14.210057,-0.744787 28.459343,-0.916707 42.668557,-1.978788 0.651222,-0.04868 1.272948,-0.312766 1.92313,-0.373776 1.321046,-0.12396 2.653696,0 3.980545,0 4.839041,0 9.712269,0.188629 14.545201,0 2.468319,-0.09634 4.936588,-0.194129 7.404513,-0.300074 9.950354,-0.42716 -2.347913,-0.204559 6.070396,-0.654096 4.431886,-0.236663 8.903466,0.248792 13.334606,0 2.21753,-0.124507 4.41891,-0.442027 6.63593,-0.585338 3.40864,-0.220339 6.90758,0 10.32639,0 6.76112,0 13.52224,0 20.28336,0 3.59188,0 7.18375,0 10.77562,0 1.59677,0 3.34501,-0.144956 4.93953,0 1.55758,0.141599 3.18913,0.625358 4.74317,0.822135 6.04525,0.765466 -1.22421,-0.255826 4.33666,0.884335 1.17221,0.240343 1.71394,0.319733 2.1281,1.557003 0.76487,2.284955 -3.08206,1.57419 -4.16937,1.695002 -0.45149,0.05017 -0.88391,0.226412 -1.33634,0.267269 -3.77857,0.341229 -7.73128,0 -11.51773,0 -3.25232,0 -6.45409,0.410594 -9.69919,0.617939 -1.32655,0.08476 -2.66205,-0.09707 -3.98775,0 -2.31897,0.169788 -4.60963,0.161304 -6.92819,0.299732 -8.34151,0.498021 1.55086,0.322186 -9.42421,0.726394 -5.05673,0.186238 -10.13394,-0.185341 -15.19071,0 -7.63077,0.279685 -15.031873,1.828375 -22.642445,2.118638 -11.148679,0.425204 -22.353207,0.26727 -33.538311,0.26727 -5.623203,0 -11.246403,0 -16.869603,0 -3.101194,0 -6.413224,0.34068 -9.504047,0 -2.76633,-0.304914 -0.996236,-0.26727 -2.69692,-0.26727 -0.237456,0 -4.733378,0.0072 -4.739271,0 -0.272465,-0.331311 -0.668646,-0.187611 -0.940467,-0.464606 -0.428048,-0.436195 -0.336936,-0.944537 -1.062366,-1.309529 -1.048591,-0.527588 -1.914431,-0.557803 -1.247271,-1.89202 0.590619,-1.181148 -0.577854,-0.478537 1.398483,-1.43022 z"
       id="path833" />
    <path
       style="fill:#ffffff;fill-opacity:1;stroke:none;stroke-width:0.264583px;stroke-linecap:butt;stroke-linejoin:miter;stroke-opacity:1"
       d="m 26.825719,18.068903 4.770689,-0.195551 7.28722,5.84216 -5.542431,0.05116 z"
       id="path2803" />
    <path
       style="fill:#ffffff;fill-opacity:1;stroke:none;stroke-width:0.272516px;stroke-linecap:butt;stroke-linejoin:miter;stroke-opacity:1"
       d="m 40.311681,17.649517 4.770689,-0.207453 7.28722,6.197749 -5.542431,0.05427 z"
       id="path2803-6" />
    <path
       style="fill:#ffffff;fill-opacity:1;stroke:none;stroke-width:0.282006px;stroke-linecap:butt;stroke-linejoin:miter;stroke-opacity:1"
       d="m 54.031715,17.124354 4.770689,-0.222153 7.28722,6.636907 -5.542431,0.05812 z"
       id="path2803-7" />
    <path
       style="fill:#ffffff;fill-opacity:1;stroke:none;stroke-width:0.30054px;stroke-linecap:butt;stroke-linejoin:miter;stroke-opacity:1"
       d="m 68.420478,16.356301 4.770689,-0.252313 7.28722,7.537942 -5.542431,0.06601 z"
       id="path2803-5" />
    <path
       style="fill:#ffffff;fill-opacity:1;stroke:none;stroke-width:0.294124px;stroke-linecap:butt;stroke-linejoin:miter;stroke-opacity:1"
       d="m 83.332865,16.080407 4.770689,-0.241656 7.28722,7.219562 -5.542431,0.06322 z"
       id="path2803-3" />
    <path
       style="fill:#ffffff;fill-opacity:1;stroke:none;stroke-width:0.273176px;stroke-linecap:butt;stroke-linejoin:miter;stroke-opacity:1"
       d="m 97.955451,15.278185 4.770689,-0.20846 7.28722,6.227807 -5.54243,0.05453 z"
       id="path2803-56" />
    <path
       style="fill:#ffffff;fill-opacity:1;stroke:none;stroke-width:0.283093px;stroke-linecap:butt;stroke-linejoin:miter;stroke-opacity:1"
       d="m 112.88052,14.83899 4.77069,-0.223869 7.28722,6.688165 -5.54243,0.05857 z"
       id="path2803-2" />
    <path
       style="fill:#ffffff;fill-opacity:1;stroke:none;stroke-width:0.264583px;stroke-linecap:butt;stroke-linejoin:miter;stroke-opacity:1"
       d="m 128.74993,14.861725 4.77069,-0.195551 7.28722,5.84216 -5.54243,0.05116 z"
       id="path2803-9" />
    <path
       style="fill:#ffffff;fill-opacity:1;stroke:none;stroke-width:0.246087px;stroke-linecap:butt;stroke-linejoin:miter;stroke-opacity:1"
       d="m 144.40149,14.810991 4.77069,-0.169167 7.28722,5.053934 -5.54243,0.04425 z"
       id="path2803-1" />
    <path
       style="fill:#ffffff;fill-opacity:1;stroke:none;stroke-width:0.244119px;stroke-linecap:butt;stroke-linejoin:miter;stroke-opacity:1"
       d="m 156.37351,14.865127 4.77069,-0.166471 7.28722,4.973387 -5.54243,0.04355 z"
       id="path2803-27" />
  </g>
  <g
     inkscape:groupmode="layer"
     id="layer2"
     inkscape:label="Ebene 2"
     transform="translate(-17.755132,-8.6605451)">
    <path
       style="fill:#792100;fill-opacity:1;stroke:#000000;stroke-width:0.264583px;stroke-linecap:butt;stroke-linejoin:miter;stroke-opacity:1"
       d="m 23.639493,14.544974 5.916592,9.193336 0.347099,27.907077 -3.025407,-0.05574 -0.862929,-28.051787 -5.207857,-8.747577 0.852035,-1.554136 1.463334,-0.05526 z"
       id="path2933"
       sodipodi:nodetypes="ccccccccc" />
    <path
       style="fill:#792100;fill-opacity:1;stroke:#000000;stroke-width:0.264583px;stroke-linecap:butt;stroke-linejoin:miter;stroke-opacity:1"
       d="m 165.26434,10.722709 -5.91659,9.193336 -0.0798,31.47759 3.84927,0.01211 -0.2282,-31.690157 5.20786,-8.747577 -0.85204,-1.554136 -1.46333,-0.05526 z"
       id="path2933-9"
       inkscape:transform-center-x="2.0706298"
       inkscape:transform-center-y="9.9021431"
       sodipodi:nodetypes="ccccccccc" />
  </g>
</svg>
